{
    "dev": {
        "app_function": "server.app",
        "aws_region": "ap-southeast-1",
        "profile_name": "default",
        "project_name": "belajarpythonbo",
        "runtime": "python3.7",
        "s3_bucket": "zappa-c164nh88s"
    }
}